%abc
%%abc-alias My music
%%abc-creator ABCexplorer 1.3.1 [7/27/2008]

X:1
T:Fjallarr's Jig - Bagpipe   % title
C:Fjallarr of Landroval      % composer
O:Rakaneth                   % origin.
M:6/8                        % meter
L:1/8                        % length of shortest note
Q:165                        % tempo
K:C                          % key
z6 | z6 | z6 | z6 | z6 | z6 | z6 | z6 |
z6 | z6 | z6 | z6 | z6 | z6 | z6 | z6 |
DAA AAA | GAG FGE | DAA AAA | GAG F2E | DAA AAA | GAG FGE | DAA AAA | GAG F2E |
Ddd ddd | efe dcd | Ddd ddd | efe d2c | Ddd ddd | efe dcd | efe ded | cdc B2A |
Ddd ddd | efe dcd | Ddd ddd | efe d2c | Ddd ddd | efe dcd | efe ded | cdc B2A |
DFA DFA | GEC CDE | DFA DFA | GEC C2E | DFA DFA | GEC CDE | DFA DFA | GEC C2E |
Ddd ddd | efe dcd | Ddd ddd | efe d2c | Ddd ddd | efe dcd | efe ded | cdc B2A |
Ddd ddd | efe dcd | Ddd ddd | efe d2c | Ddd ddd | efe dcd | efe ded | cdc B2A |
DAA cAA | cAc BGE | DAA cAA | BGE GEC | DAA cAA | cAc BGE | DAA cAA | BGB GEC |
Ddd ddd | efe dcd | Ddd ddd | efe d2c | Ddd ddd | efe dcd | efe ded | cdc B2A |
Ddd ddd | efe dcd | Ddd ddd | efe d2c | Ddd ddd | efe dcd | efe ded | cdc B2A |
z3 d3 |] 

X:2
T:Fjallarr's Jig - Lute
C:Fjallarr of Landroval
O:Rakaneth
M:6/8
L:1/8
Q:165
K:C
DAA AAA | GAG FGE | DAA AAA | GAG F2E | DAA AAA | GAG FGE | DAA AAA | GAG F2E |
Ddd ddd | efe dcd | Ddd ddd | efe d2c | Ddd ddd | efe dcd | efe ded | cdc B2A|
[DFAd]z2 [DFAd]z2 | [CEGc]z2 [C3E3a3c3]| [DFAd]z2 [DFAd]z2 | [CEGc]z2 [C3E3a3c3]| [DFAd]z2 [DFAd]z2 | [CEGc]z2 [C3E3a3c3]| [DFAd]z2 [DFAd]z2 | [CEGc]z2 [C3E3a3c3]|
[DFd]FA [DAd]FA | [CGc]EG [CEA]EA | [DFA]FA [FAd]FA | [Ace]cA [EGc]GC | [Dd]F[Ae] [Df]F[Ag] | [Ca]E[Gg] [Cf]E[Ge] | cdc BcB | ABA GEC |
[DFd]FA [DAd]FA | [CGc]EG [CEA]EA | [DFA]FA [FAd]FA | [Ace]cA [EGc]GC | [Dd]F[Ae] [Df]F[Ag] | [Ca]E[Gg] [Cf]E[Ge] | cdc BcB | ABA GEC |
DAA AAA | GAG FGE | DAA AAA | GAG F2E | DAA AAA | GAG FGE | DAA AAA | GAG F2E |
[DFd]FA [DAd]FA | [CGc]EG [CEA]EA | [DFA]FA [FAd]FA | [Ace]cA [EGc]GC | [Dd]F[Ae] [Df]F[Ag] | [Ca]E[Gg] [Cf]E[Ge] | cdc BcB | ABA GEC |
[DFd]FA [DAd]FA | [CGc]EG [CEA]EA | [DFA]FA [FAd]FA | [Ace]cA [EGc]GC | [Dd]F[Ae] [Df]F[Ag] | [Ca]E[Gg] [Cf]E[Ge] | cdc BcB | ABA GEC |
[DFAd]z2 [DFAdf]z2 | [CEGce]z2 [CEAc]z2 | DFA dfa | GBd ceg | [DFAd]z2 [DFAdf]z2 | [CEGce]z2 [CEAc]z2 | DFA dfa | GBd ceg |
[DFd]FA [DAd]FA | [CGc]EG [CEA]EA | [DFA]FA [FAd]FA | [Ace]cA [EGc]GC | [Dd]F[Ae] [Df]F[Ag] | [Ca]E[Gg] [Cf]E[Ge] | cdc BcB | ABA GEC |
[DFd]FA [DAd]FA | [CGc]EG [CEA]EA | [DFA]FA [FAd]FA | [Ace]cA [EGc]GC | [Dd]F[Ae] [Df]F[Ag] | [Ca]E[Gg] [Cf]E[Ge] | cdc BcB | ABA GEC |
z3 [D3F3A3d3f3a3] |]

X:3
T:Fjallarr's Jig - Theorbo
C:Fjallarr of Landroval
O:Rakaneth
M:6/8
L:1/8
Q:165
K:C
z6 | z6 | z6 | z6 | z6 | z6 | z6 | z6 |
z6 | z6 | z6 | z6 | z6 | z6 | z6 | z6 |
D3 d3 | c3 A3 | D3 d3 | G3 A3 | D3 d3 | c3 A3 | D3 d3 | G3 A3 |
F3 A3 | c3 A3 | D3 F3 |A3 e3 | F3 A3 | c3 A3 | D2E F2G | A2G F2E |
F3 A3 | c3 A3 | D3 F3 |A3 e3 | F3 A3 | c3 A3 | D2E F2G | A2G F2E |
D3 d3 | c3 A3 | D3 d3 | G3 A3 | D3 d3 | c3 A3 | D3 d3 | G3 A3 |
F3 A3 | c3 A3 | D3 F3 |A3 e3 | F3 A3 | c3 A3 | D2E F2G | A2G F2E |
F3 A3 | c3 A3 | D3 F3 |A3 e3 | F3 A3 | c3 A3 | D2E F2G | A2G F2E |
D3 d3 | c3 A3 | D3 d3 | G3 A3 | D3 d3 | c3 A3 | D3 d3 | G3 A3 |
F3 A3 | c3 A3 | D3 F3 |A3 e3 | F3 A3 | c3 A3 | D2E F2G | A2G F2E |
F3 A3 | c3 A3 | D3 F3 |A3 e3 | F3 A3 | c3 A3 | D2E F2G | A2G F2E |
d3 D3 |]

X:4
T:Fjallarr's Jig - Drums
C:Fjallarr of Landroval
O:Rakaneth
M:6/8
L:1/8
Q:165
K:C
+fff+
Dzd/d/ dzd | dzd dzd | Dzd/d/ dzd | dzd dzd | Dzd/d/ dzd | dzd dzd | Dzd/d/ dzd | dzd dzd |
Dzd/d/ dzd | dzd dzd | Dzd/d/ dzd | dzd dzd | Dzd/d/ dzd | dzd dzd | Dzd/d/ dzd | dzd dzd |
Ddd zd/d/d | zdd dzd | Dd/d/d dzd/d/ | Ddd ddd | Ddd zd/d/d | zdd dzd | Dd/d/d dzd/d/ | Ddd ddd |
Dd/d/d ddd | ddd dzd | D/d/d/d/d ddd | dzd zdz | Ddd dd/d/d | ddd d/d/d/d/d | Ddd ddd | Ddd Ddd |
Dd/d/d ddd | ddd dzd | D/d/d/d/d ddd | dzd zdz | Ddd dd/d/d | ddd d/d/d/d/d | Ddd ddd | Ddd Ddd |
Ddd zd/d/d | zdd dzd | Dd/d/d dzd/d/ | Ddd ddd | Ddd zd/d/d | zdd dzd | Dd/d/d dzd/d/ | Ddd ddd |
Dd/d/d ddd | ddd dzd | D/d/d/d/d ddd | dzd zdz | Ddd dd/d/d | ddd d/d/d/d/d | Ddd ddd | Ddd Ddd |
Dd/d/d ddd | ddd dzd | D/d/d/d/d ddd | dzd zdz | Ddd dd/d/d | ddd d/d/d/d/d | Ddd ddd | Ddd Ddd |
Ddd zdd | ddd ddd | Ddd zdd | dzd zdz | Ddd zd/d/d |zdd zd/d/d | Ddd d/d/d/d/d/d/ | ddd ddd |
Dd/d/d ddd | ddd dzd | D/d/d/d/d ddd | dzd zdz | Ddd dd/d/d | ddd d/d/d/d/d | Ddd ddd | Ddd Ddd |
Dd/d/d ddd | ddd dzd | D/d/d/d/d ddd | dzd zdz | Ddd dd/d/d | ddd d/d/d/d/d | Ddd ddd | Ddd Ddd |
ddd Dzz |]



