X:5
T:Silver-song Minuet
C:Fjallarr of Landroval
O:Rakaneth
M:3/4
L:1/8
R:waltz
Q:135
K:Eb
|: "Cm"gz gz gz | "Fm"agfedc | "G"=Bz =Bz =Bz | "Ab"=B4 c2 | "Ddim"dz dz dz | "Ddim/F"fedc=B=A | "G"Gz Gz Gz | "Cm"G4 C2 |
| "Eb"gz gz gz | "Ab"c'bagfe| "Bb"dz dz dz | "G7"d4 f2 | "Ab"ez ez ez | "Fm"fedc=B=A | "G"Gz Gz Gz | "Cm"C6 :|
| "Eb"bz bz bz | "Ab"c'bagfe | "Bb"dz dz dz | "Eb"d4 e2 | "Fm"fz fz fz | "Ab"agfedc | "Bb"Bz Bz Bz | "Eb"B4 E2 |
| "Eb"bz bz bz | "Ab"c'bagfe | "Bb"dz dz dz | "G7"d4 f2 | "Ab"ez ez ez | "Fm"fedc=B=A | "G"Gz Gz Gz | "Cm"C6 |
| "Cm"c=B cz ez| "Fm"c4 A2 | "Bb"dc dz fz | "Eb"B4 G2 | "Ab"cB cz ez | "Fm"A4 F2 | "G"=B=A Bz dz | "Cm"c2 cdec| 
| "Cm"c=B cz ez| "Fm"c4 A2 | "Bb"dc dz fz | "Eb"B4 G2 | "Ab"cB cz ez | "Ddim/F"A4 F2 |"G"G2 GFED | "Cm"C6 |]

